\relax 
\providecommand\babel@aux[2]{}
\@nameuse{bbl@beforestart}
\catcode `"\active 
\babel@aux{catalan}{}
\@writefile{toc}{\contentsline {section}{\numberline {I}Introducció}{1}{}\protected@file@percent }
\@writefile{toc}{\contentsline {section}{\numberline {II}Generació de les Xarxes}{1}{}\protected@file@percent }
\@writefile{toc}{\contentsline {subsection}{\numberline {\mbox  {II-A}}Erdös-Renyi}{1}{}\protected@file@percent }
\@writefile{toc}{\contentsline {subsection}{\numberline {\mbox  {II-B}}Model de Configuració}{1}{}\protected@file@percent }
\@writefile{toc}{\contentsline {section}{\numberline {III}Característiques de les xarxes}{1}{}\protected@file@percent }
\@writefile{toc}{\contentsline {subsection}{\numberline {\mbox  {III-A}}Transitivitat}{1}{}\protected@file@percent }
\@writefile{lof}{\contentsline {figure}{\numberline {1}{\ignorespaces Transitivitat de les xarxes.}}{1}{}\protected@file@percent }
\newlabel{fig:clustering}{{1}{1}}
\@writefile{toc}{\contentsline {subsection}{\numberline {\mbox  {III-B}}Distribució de nodes a les components}{2}{}\protected@file@percent }
\@writefile{toc}{\contentsline {section}{\numberline {IV}Mesures de Centralitat}{2}{}\protected@file@percent }
\@writefile{toc}{\contentsline {subsection}{\numberline {\mbox  {IV-A}}Eigenvector}{2}{}\protected@file@percent }
\@writefile{lof}{\contentsline {figure}{\numberline {2}{\ignorespaces Agrupació de llibreries.}}{2}{}\protected@file@percent }
\newlabel{fig:clustering2}{{2}{2}}
\@writefile{lof}{\contentsline {figure}{\numberline {3}{\ignorespaces Distribució de centralitats d'Eigenvector.}}{2}{}\protected@file@percent }
\newlabel{fig:eigen_distribution}{{3}{2}}
\@writefile{toc}{\contentsline {subsection}{\numberline {\mbox  {IV-B}}PageRank}{2}{}\protected@file@percent }
\@writefile{toc}{\contentsline {subsection}{\numberline {\mbox  {IV-C}}Betweenness}{2}{}\protected@file@percent }
\@writefile{lof}{\contentsline {figure}{\numberline {4}{\ignorespaces Distribució de centralitats de Pagerank.}}{3}{}\protected@file@percent }
\newlabel{fig:pagerank_distribution}{{4}{3}}
\@writefile{toc}{\contentsline {section}{\numberline {V}Distribució de comunitats}{3}{}\protected@file@percent }
\@writefile{lof}{\contentsline {figure}{\numberline {5}{\ignorespaces Distribució de centralitats de Betweenness.}}{3}{}\protected@file@percent }
\newlabel{fig:betweenness_distribution}{{5}{3}}
\@writefile{lof}{\contentsline {figure}{\numberline {6}{\ignorespaces Comunitats segons Louvain.}}{3}{}\protected@file@percent }
\newlabel{fig:louvain}{{6}{3}}
\@writefile{toc}{\contentsline {section}{\numberline {VI}Percolació}{3}{}\protected@file@percent }
\@writefile{toc}{\contentsline {subsection}{\numberline {\mbox  {VI-A}}Percolació Uniforme}{3}{}\protected@file@percent }
\@writefile{lof}{\contentsline {figure}{\numberline {7}{\ignorespaces Distribució de nodes a les Comunitats.}}{4}{}\protected@file@percent }
\newlabel{fig:communities}{{7}{4}}
\@writefile{lof}{\contentsline {figure}{\numberline {8}{\ignorespaces Percolació uniforme teòrica a una xarxa aleatòria.}}{4}{}\protected@file@percent }
\newlabel{fig:percolacio_uniforme_mc_teoria}{{8}{4}}
\@writefile{toc}{\contentsline {subsection}{\numberline {\mbox  {VI-B}}Percolació No Uniforme}{4}{}\protected@file@percent }
\@writefile{toc}{\contentsline {section}{\numberline {VII}Conclusions}{4}{}\protected@file@percent }
\@writefile{lof}{\contentsline {figure}{\numberline {9}{\ignorespaces Percolació uniforme a la xarxa original.}}{5}{}\protected@file@percent }
\newlabel{fig:percolacio_uniforme_original}{{9}{5}}
\@writefile{lof}{\contentsline {figure}{\numberline {10}{\ignorespaces Percolació uniforme a una xarxa Erdös-Renyi.}}{5}{}\protected@file@percent }
\newlabel{fig:percolacio_uniforme_er}{{10}{5}}
\@writefile{lof}{\contentsline {figure}{\numberline {11}{\ignorespaces Percolació uniforme a una xarxa de model de configuració.}}{6}{}\protected@file@percent }
\newlabel{fig:percolacio_uniforme_mc}{{11}{6}}
\@writefile{lof}{\contentsline {figure}{\numberline {12}{\ignorespaces Percolació no uniforme a la xarxa original.}}{6}{}\protected@file@percent }
\newlabel{fig:percolacio_no_uniforme_original}{{12}{6}}
\@writefile{lof}{\contentsline {figure}{\numberline {13}{\ignorespaces Percolació no uniforme a una xarxa de Erdös-Renyi.}}{7}{}\protected@file@percent }
\newlabel{fig:percolacio_no_uniforme_er}{{13}{7}}
\@writefile{lof}{\contentsline {figure}{\numberline {14}{\ignorespaces Percolació no uniforme a una xarxa de model de configuració.}}{7}{}\protected@file@percent }
\newlabel{fig:percolacio_no_uniforme_mc}{{14}{7}}
\gdef \@abspage@last{8}
